acc_x,acc_y,acc_z,gyro_x,gyro_y,gyro_z
0.001770,-0.000427,-1.006836,-0.572205,-3.234863,2.052307
0.004944,0.001770,-1.009277,-0.671387,-3.143311,1.838684
0.008606,-0.007263,-1.006836,-0.862122,-2.586365,1.678467
-0.004333,0.004211,-1.004639,-0.892639,-2.388000,1.983643
0.006897,-0.008240,-1.009033,-0.846863,-3.128052,2.037048
-0.000183,-0.000427,-1.005127,-0.526428,-4.051208,1.968384
0.004944,0.000793,-1.005371,-0.762939,-2.868652,2.441406
0.051086,0.034485,-1.002930,-0.724792,-3.196716,16.571045
0.005676,0.001770,-1.008545,-0.762939,-2.883911,2.090454
-0.000671,-0.011902,-1.008301,-0.549316,-4.119873,1.876831
0.005432,0.006165,-1.007324,-0.373840,-3.402710,2.159119
-0.001892,-0.003113,-1.006592,-0.595093,-3.395081,1.693726
0.000549,0.002258,-1.005859,-0.343323,-3.768921,2.388000
0.003479,-0.008728,-1.009033,-0.648499,-3.616333,2.258301
0.003479,-0.008484,-1.007080,-0.305176,-3.196716,2.113342
-0.000427,0.007385,-1.006836,-0.762939,-3.456116,2.098083
0.003723,-0.006287,-1.010010,-0.747681,-2.723694,2.159119
0.002991,-0.001892,-1.006348,-0.617981,-2.899170,2.006531
0.003479,-0.003113,-1.007080,-0.846863,-2.548218,1.701355
0.000549,-0.004089,-1.006104,-0.602722,-4.241943,2.464294
0.001282,0.003479,-1.008301,-0.785828,-3.540039,2.029419
0.000305,-0.006531,-1.006592,-0.564575,-3.898621,2.334595
0.003235,-0.003357,-1.008301,-0.823975,-2.052307,1.762390
0.002502,-0.002869,-1.007324,-1.121521,-2.388000,1.693726
0.001282,-0.007019,-1.009766,-0.724792,-3.219604,1.686096
-0.002136,0.003479,-1.007568,-0.312805,-3.921509,2.105713
0.002502,-0.009460,-1.007813,0.091553,-4.653931,2.227783
-0.006531,0.005920,-1.009033,-1.632690,-9.437561,1.609802
0.072083,0.011047,-1.019287,1.388550,-8.346558,7.972717
-0.010925,0.023743,-0.986084,7.904053,-10.246277,4.051208
-0.002380,-0.057312,-1.006104,-2.952576,-3.623962,3.425598
-0.011414,-0.030457,-1.001221,-7.247925,-7.980347,-2.922058
0.008606,0.008850,-1.087158,-31.570435,-7.461548,-8.247375
-0.010193,0.018616,-1.015869,-81.001282,-12.596130,-19.332886
-0.103943,0.006653,-1.017090,-117.057800,13.427734,1.136780
-0.218445,0.100647,-1.274658,-93.582153,16.311646,0.930786
0.047180,0.499573,-1.423584,-122.024536,49.713135,12.069702
0.244934,0.414612,-1.519531,-192.977905,110.519409,52.482605
0.145081,0.169006,-1.188721,-159.255981,125.213623,58.441162
0.104065,0.414368,-1.125000,-205.802917,83.145142,53.604126
0.057434,0.636536,-1.084717,-250.000000,94.955444,64.720154
0.152893,0.472717,-0.901611,-250.000000,184.020996,85.449219
0.385071,0.487854,-0.469727,-250.000000,159.858704,111.152649
0.513977,0.805481,-0.463623,-250.000000,164.848328,65.284729
0.723206,1.076965,-0.540039,-250.000000,177.124023,132.987976
0.240784,0.625061,-0.326904,-239.097595,235.542297,132.514954
0.417053,0.579651,0.023438,-227.737427,203.010559,48.912048
0.724426,0.946350,0.166260,-250.000000,66.909790,85.731506
0.292542,0.286682,-0.444336,-250.000000,81.687927,88.493347
0.367249,0.224426,0.044678,-53.573608,20.378113,-13.961792
0.896057,1.554749,0.755127,-2.639771,13.420105,-79.284668
0.516907,0.176819,-0.076904,85.357666,-27.641296,-20.126343
0.593323,0.707581,0.617432,-121.917725,-22.155762,15.289307
0.484192,0.721008,0.146973,-93.132019,-82.862854,-14.678955
0.998840,0.964661,0.240234,-65.681458,-146.095276,0.740051
1.156799,0.822571,0.226807,-24.497986,-135.330200,79.315186
1.021301,0.630432,0.087891,68.756104,-72.975159,21.446228
0.942932,0.796448,-0.174316,67.718506,-34.576416,-12.069702
1.019348,0.785950,-0.357422,109.718323,2.288818,-44.258118
0.813538,0.439270,0.286377,205.444336,98.449707,-52.429199
0.649475,0.829407,0.705811,131.813049,29.037476,-161.300659
0.504456,0.898987,0.292236,-18.035889,-112.808228,-151.527405
0.644348,0.893616,-0.148682,-47.386169,-109.970093,-174.789429
0.696838,0.765686,0.232422,-76.560974,-101.264954,-190.750122
0.631165,0.873108,0.116211,-79.933167,-77.590942,-160.850525
0.602844,0.960754,0.463867,-176.132202,-131.080627,-155.227661
0.821350,0.484192,0.340820,-168.357849,-124.847412,-155.418396
0.537659,0.405823,0.820313,-23.521423,-27.404785,-196.449280
0.415833,0.415100,0.729980,23.765564,-89.889526,-228.851318
0.331360,0.414856,0.652100,93.940735,-101.516724,-250.000000
0.124817,0.327209,0.595947,154.815674,-115.608215,-250.000000
-0.061218,0.526917,0.423828,159.973145,-84.304810,-250.000000
-0.402039,0.410950,-0.407959,128.646851,-32.188416,-250.000000
-1.026062,0.430481,-0.768066,76.309204,-13.442993,-250.000000
-2.356140,0.197327,-0.667480,-1.724243,-7.484436,-195.060730
-2.273132,0.365051,-0.411621,-25.123596,-60.905457,-25.749207
-2.002869,0.416321,-0.298340,-31.761169,-9.277344,112.060547
-1.760681,0.410950,-0.383789,-56.167603,-6.874084,200.874329
-1.277039,0.376526,-0.449463,-90.248108,-48.629761,249.992371
-0.419861,0.471497,-0.381104,-112.762451,-83.969116,249.992371
0.001038,0.593323,-0.230957,-131.713867,-105.155945,249.992371
0.582336,0.609680,0.052246,-93.200684,-158.508301,219.024658
1.362610,0.733215,0.194824,-77.369690,-138.496399,180.404663
2.092102,0.785706,0.557617,-35.644531,-110.107422,102.317810
2.616028,0.908752,0.807617,-58.456421,-89.500427,10.398865
2.012512,0.368225,0.576172,34.950256,-6.309509,-169.784546
1.146790,0.208557,0.242920,75.706482,8.575439,-250.000000
0.196594,0.178284,-0.133545,48.706055,44.929504,-250.000000
-1.073181,0.103821,-0.241211,2.464294,43.899536,-250.000000
-2.310242,-0.112000,-0.021729,-25.138855,3.662109,-250.000000
-3.478210,0.009094,0.458984,-5.706787,-20.385742,-189.826965
-2.856140,0.151184,0.404297,1.663208,12.687683,53.077698
-1.689880,0.265442,0.226318,-38.497925,127.700806,195.755005
-1.704773,0.206116,0.263184,-25.199890,26.702881,249.992371
-0.794128,0.335999,0.094727,15.861511,-137.588501,249.992371
-0.328796,0.359924,-0.026123,24.597168,-125.617981,249.992371
0.322815,0.558411,0.049072,28.648376,-43.052673,249.992371
1.212708,0.689026,-0.108887,13.557434,-54.008484,249.992371
2.051575,0.888000,-0.061279,-19.638062,-62.843323,186.416626
2.569397,0.941467,0.261719,-29.273987,-13.771057,52.185059
2.245422,0.474670,0.228271,-9.185791,3.524780,-135.795593
1.209290,0.387024,0.062256,20.339966,74.417114,-250.000000
0.161438,0.350647,-0.182373,15.724182,106.819153,-250.000000
-0.742371,0.355530,-0.196289,-24.337769,101.158142,-250.000000
-1.746277,0.243225,-0.155273,-47.111511,103.004456,-250.000000
-2.790710,0.339905,0.092285,-33.714294,31.669617,-221.412659
-2.710876,0.441467,0.314941,-48.385620,0.823975,-50.323486
-2.154968,0.454651,0.345947,-27.465820,-12.565613,136.199951
-1.553406,0.368225,0.223633,-46.730042,70.060730,202.850342
-1.277283,0.292297,0.186523,-28.396606,-25.718689,249.992371
-0.462341,0.371643,0.094727,-7.850647,-104.621887,249.992371
0.218811,0.545471,0.031738,6.118774,-108.810425,249.992371
0.756165,0.708557,0.022217,6.515503,-95.573425,244.300842
1.334290,0.813049,0.147949,-7.919312,-61.431885,171.684265
1.820862,0.771057,0.292480,-4.577637,-61.851501,86.708069
1.965149,0.771057,0.242432,11.108398,-16.105652,-29.067993
1.519104,0.736633,0.177734,31.127930,-9.887695,-145.797729
0.929993,0.601868,0.050537,4.142761,-37.445068,-210.723877
0.004211,0.600647,0.083984,47.004700,8.651733,-250.000000
-0.705261,0.534973,-0.077637,-3.395081,13.114929,-250.000000
-1.181580,0.531799,-0.025146,-32.897949,24.200439,-250.000000
-1.862244,0.450012,0.307617,-36.758423,30.799866,-207.366943
-2.494568,0.472229,0.727539,-5.157471,-30.021667,-95.039368
-2.332214,0.523499,0.717529,3.883362,22.102356,53.993225
-1.926453,0.440735,0.559082,24.276733,-18.630981,140.274048
-1.293640,0.377991,0.368408,63.179016,-84.259033,226.730347
-0.568054,0.416809,0.091309,103.103638,-117.599487,249.992371
0.017395,0.565979,-0.077393,82.344055,-91.018677,249.992371
0.597229,0.640686,-0.290527,23.765564,-56.686401,238.235474
1.374084,0.867493,-0.451904,20.538330,-11.764526,205.604553
1.896057,0.918030,-0.238525,-10.032654,43.472290,119.178772
2.070374,0.920715,0.020752,-28.327942,48.561096,-4.852295
1.460510,0.718079,0.030762,-17.448425,59.219360,-146.499634
0.852600,0.556702,0.018555,-17.684937,93.376160,-206.626892
0.247864,0.555969,-0.012207,-13.320923,134.414673,-250.000000
-0.364685,0.511047,-0.128418,-39.329529,140.151978,-250.000000
-1.151550,0.419250,-0.073730,-77.354431,137.573242,-250.000000
-2.507751,0.282532,0.177490,-42.411804,49.530029,-250.000000
-2.870789,0.476379,0.322266,-31.311035,19.424438,-47.042847
-2.394958,0.463684,0.310303,-30.593872,60.043335,103.027344
-1.740417,0.426331,0.100830,-58.815002,85.632324,170.730591
-1.316833,0.377747,0.061035,-36.903381,-18.348694,249.992371
-0.583679,0.398499,0.001221,-18.310547,-93.040466,249.992371
-0.001160,0.486389,-0.022461,-12.771606,-89.981079,249.992371
0.769348,0.617004,0.029541,-14.793396,-76.652527,249.435425
1.453674,0.747864,0.207275,-28.800964,-26.489258,191.619873
1.786682,0.748596,0.532471,-17.120361,15.052795,106.597900
1.838928,0.735901,0.561279,13.580322,-14.625549,-25.489807
1.506165,0.651917,0.350098,44.975281,-13.053894,-143.058777
0.847473,0.588684,0.188477,66.741943,7.209778,-233.879089
-0.152283,0.658997,-0.033203,79.002380,-13.198853,-250.000000
-1.012390,0.620178,-0.283936,9.284973,0.778198,-250.000000
-2.141541,0.597229,-0.000977,-0.671387,-16.555786,-250.000000
-2.348083,0.690979,0.303955,-16.204834,-14.038086,-132.377625
-2.221130,0.656555,0.370850,-34.400940,28.999329,25.833130
-1.921814,0.521790,0.303223,-13.488770,23.765564,137.573242
-1.315369,0.508362,0.234131,-18.806458,-25.154114,200.447083
-0.835876,0.437561,0.189941,-5.249023,-38.070679,249.992371
-0.113220,0.493958,0.130127,-2.655029,-81.062317,249.992371
0.610168,0.620911,-0.034180,-6.858826,-86.273193,235.671997
1.233948,0.750061,0.053711,-6.462097,-45.364380,182.815552
1.809875,0.801331,0.231445,-8.888245,-8.956909,106.658936
2.154358,0.890442,0.313965,8.232117,9.109497,-17.494202
1.424622,0.658264,0.176270,25.146484,19.882202,-169.746399
0.774231,0.574280,0.050537,31.364441,44.189453,-245.841980
-0.026550,0.607727,-0.038086,36.941528,85.571289,-250.000000
-0.909851,0.595276,-0.178223,-7.682800,117.584229,-250.000000
-1.833435,0.553772,-0.156006,-18.745422,83.564758,-250.000000
-2.474792,0.568665,0.000488,-36.964417,21.583557,-184.036255
-2.508484,0.524231,0.228271,-44.837952,-0.457764,4.257202
-1.976746,0.505188,0.302002,-34.049988,-35.041809,155.456543
-1.356873,0.438293,0.232422,-50.224304,1.983643,189.483643
-0.903015,0.449524,0.132568,-36.323547,-60.600281,229.034424
-0.195251,0.505676,0.006836,-33.363342,-98.564148,243.164063
0.389954,0.673645,0.057617,-36.399841,-85.021973,238.822937
0.894104,0.713440,0.189209,-25.245667,-81.909180,196.350098
1.614319,0.807434,0.294922,5.332947,-83.724976,114.250183
1.836243,1.210510,0.578125,13.954163,-67.001343,29.975891
1.390930,0.594299,0.126953,17.219543,-100.318909,-59.165955
0.852356,0.641174,-0.008301,47.492981,-40.679932,-180.847168
0.134094,0.638733,0.116943,8.964539,56.144714,-247.085571
-0.667175,0.592346,0.168701,4.379272,57.975769,-250.000000
-1.240662,0.638977,0.195557,14.709473,38.871765,-211.502075
-1.496033,0.653870,0.197754,28.030396,5.851746,-174.987793
-2.081726,0.725647,0.476807,0.946045,-28.450012,-115.287781
-2.326843,0.730042,0.499023,-16.944885,-31.463623,-7.392883
-1.809998,0.673401,0.478516,-8.590698,26.054382,112.007141
-1.256775,0.575256,0.291992,-9.170532,29.472351,188.072205
-0.675964,0.566467,0.117676,-3.051758,-21.492004,237.838745
-0.031921,0.581604,-0.011230,-13.229370,-23.826599,249.320984
0.574768,0.670715,0.041992,-15.586853,-41.473389,236.282349
1.253235,0.739319,0.059326,-16.235352,-52.001953,187.431335
1.804749,0.784729,0.140869,-9.338379,4.920959,113.082886
1.999573,0.731018,0.231445,-9.078979,40.016174,-17.974854
1.310852,0.567200,0.218262,16.105652,58.448792,-161.872864
0.696106,0.512268,0.120117,22.827148,69.129944,-243.217468
0.047668,0.501526,0.023926,23.750305,98.617554,-250.000000
-0.739197,0.485413,-0.084717,10.162354,95.680237,-250.000000
-1.656433,0.470276,-0.067139,-13.771057,52.406311,-250.000000
-2.312439,0.509338,0.150879,-32.485962,44.113159,-204.643250
